{
  "contacts": [
    {
      "selected": false,
      "name": "a",
      "value": "1",
      "_id": 1
    },
    {
      "selected": false,
      "name": "b",
      "value": "2",
      "_id": 2
    },
    {
      "selected": false,
      "name": "c",
      "value": "3",
      "_id": 3
    },
    {
      "selected": false,
      "name": "1523782514486",
      "value": "1523782514487",
      "_id": 4
    },
    {
      "selected": false,
      "name": "1523782515749",
      "value": "",
      "_id": 5
    },
    {
      "selected": false,
      "name": "1523782518200",
      "value": "",
      "_id": 6
    },
    {
      "selected": false,
      "name": "Jaana",
      "value": "",
      "_id": 7
    },
    {
      "selected": false,
      "name": "Jaak",
      "value": "",
      "_id": 8
    },
    {
      "selected": false,
      "name": "Tiit",
      "value": "aa",
      "_id": 9
    },
    {
      "selected": false,
      "name": "Tiina",
      "value": "",
      "_id": 10
    },
    {
      "selected": false,
      "name": "1523782689717",
      "value": "1523782689718",
      "_id": 11
    },
    {
      "selected": false,
      "name": "1523782690576",
      "value": "",
      "_id": 12
    },
    {
      "selected": false,
      "name": "1523782692177",
      "value": "",
      "_id": 13
    },
    {
      "selected": false,
      "name": "Jaana",
      "value": "",
      "_id": 14
    },
    {
      "selected": false,
      "name": "Jaak",
      "value": "",
      "_id": 15
    },
    {
      "selected": false,
      "name": "Tiit",
      "value": "aa",
      "_id": 16
    },
    {
      "selected": false,
      "name": "Tiina",
      "value": "",
      "_id": 17
    }
  ]
}